[
	{
		"pivot":"2022-02-15",
		"rulesForAge":[
			{
				"ageMin":1,
				"ageMinExpDays":31,
				"v":[
					{"products":["#AR","#AZ","EU/1/21/1618","#JA", "EU/1/21/1580"],"valid":{"s":7}}
				],
				"r":[
					{"valid":{"s":11}}
				],
				"p":[
					{"valid":{"s":11}}
				],
				"desc":"All 1+"
			}
		]
	}
]
